<?xml version="1.0" encoding="UTF-8"?>
<testsuite xmlns:xsi="http://www.w3.org/2001/XMLSchema-instance" xsi:noNamespaceSchemaLocation="https://maven.apache.org/surefire/maven-surefire-plugin/xsd/surefire-test-report-3.0.xsd" version="3.0" name="com.functional.steps.RunnerClass" time="131.835" tests="5" errors="0" skipped="0" failures="0">
  <properties>
    <property name="sun.desktop" value="windows"/>
    <property name="awt.toolkit" value="sun.awt.windows.WToolkit"/>
    <property name="java.specification.version" value="11"/>
    <property name="webdriver.chrome.driver" value="C:\Users\Mahender.Korapu\.cache\selenium\chromedriver\win64\119.0.6045.105\chromedriver.exe"/>
    <property name="sun.cpu.isalist" value="amd64"/>
    <property name="sun.jnu.encoding" value="Cp1252"/>
    <property name="java.class.path" value="D:\Aracter_Project\Mahender\ArcatarTestAutomation\WebAutomation\target\test-classes;D:\Aracter_Project\Mahender\ArcatarTestAutomation\WebAutomation\target\classes;C:\Users\Mahender.Korapu\.m2\repository\io\cucumber\cucumber-java\7.6.0\cucumber-java-7.6.0.jar;C:\Users\Mahender.Korapu\.m2\repository\io\cucumber\cucumber-core\7.6.0\cucumber-core-7.6.0.jar;C:\Users\Mahender.Korapu\.m2\repository\io\cucumber\cucumber-gherkin\7.6.0\cucumber-gherkin-7.6.0.jar;C:\Users\Mahender.Korapu\.m2\repository\io\cucumber\cucumber-gherkin-messages\7.6.0\cucumber-gherkin-messages-7.6.0.jar;C:\Users\Mahender.Korapu\.m2\repository\io\cucumber\gherkin\24.0.0\gherkin-24.0.0.jar;C:\Users\Mahender.Korapu\.m2\repository\io\cucumber\messages\19.0.0\messages-19.0.0.jar;C:\Users\Mahender.Korapu\.m2\repository\io\cucumber\tag-expressions\4.1.0\tag-expressions-4.1.0.jar;C:\Users\Mahender.Korapu\.m2\repository\io\cucumber\cucumber-expressions\16.0.0\cucumber-expressions-16.0.0.jar;C:\Users\Mahender.Korapu\.m2\repository\io\cucumber\datatable\7.6.0\datatable-7.6.0.jar;C:\Users\Mahender.Korapu\.m2\repository\io\cucumber\cucumber-plugin\7.6.0\cucumber-plugin-7.6.0.jar;C:\Users\Mahender.Korapu\.m2\repository\io\cucumber\docstring\7.6.0\docstring-7.6.0.jar;C:\Users\Mahender.Korapu\.m2\repository\io\cucumber\html-formatter\20.0.0\html-formatter-20.0.0.jar;C:\Users\Mahender.Korapu\.m2\repository\io\cucumber\ci-environment\9.1.0\ci-environment-9.1.0.jar;C:\Users\Mahender.Korapu\.m2\repository\org\apiguardian\apiguardian-api\1.1.2\apiguardian-api-1.1.2.jar;C:\Users\Mahender.Korapu\.m2\repository\io\cucumber\cucumber-testng\7.6.0\cucumber-testng-7.6.0.jar;C:\Users\Mahender.Korapu\.m2\repository\io\cucumber\cucumber-picocontainer\5.4.2\cucumber-picocontainer-5.4.2.jar;C:\Users\Mahender.Korapu\.m2\repository\org\picocontainer\picocontainer\2.15\picocontainer-2.15.jar;C:\Users\Mahender.Korapu\.m2\repository\org\seleniumhq\selenium\selenium-java\4.11.0\selenium-java-4.11.0.jar;C:\Users\Mahender.Korapu\.m2\repository\org\seleniumhq\selenium\selenium-api\4.11.0\selenium-api-4.11.0.jar;C:\Users\Mahender.Korapu\.m2\repository\org\seleniumhq\selenium\selenium-chrome-driver\4.11.0\selenium-chrome-driver-4.11.0.jar;C:\Users\Mahender.Korapu\.m2\repository\com\google\auto\service\auto-service-annotations\1.0.1\auto-service-annotations-1.0.1.jar;C:\Users\Mahender.Korapu\.m2\repository\com\google\guava\guava\31.1-jre\guava-31.1-jre.jar;C:\Users\Mahender.Korapu\.m2\repository\com\google\guava\failureaccess\1.0.1\failureaccess-1.0.1.jar;C:\Users\Mahender.Korapu\.m2\repository\com\google\guava\listenablefuture\9999.0-empty-to-avoid-conflict-with-guava\listenablefuture-9999.0-empty-to-avoid-conflict-with-guava.jar;C:\Users\Mahender.Korapu\.m2\repository\com\google\code\findbugs\jsr305\3.0.2\jsr305-3.0.2.jar;C:\Users\Mahender.Korapu\.m2\repository\org\checkerframework\checker-qual\3.12.0\checker-qual-3.12.0.jar;C:\Users\Mahender.Korapu\.m2\repository\com\google\errorprone\error_prone_annotations\2.11.0\error_prone_annotations-2.11.0.jar;C:\Users\Mahender.Korapu\.m2\repository\com\google\j2objc\j2objc-annotations\1.3\j2objc-annotations-1.3.jar;C:\Users\Mahender.Korapu\.m2\repository\org\seleniumhq\selenium\selenium-chromium-driver\4.11.0\selenium-chromium-driver-4.11.0.jar;C:\Users\Mahender.Korapu\.m2\repository\org\seleniumhq\selenium\selenium-json\4.11.0\selenium-json-4.11.0.jar;C:\Users\Mahender.Korapu\.m2\repository\org\seleniumhq\selenium\selenium-manager\4.11.0\selenium-manager-4.11.0.jar;C:\Users\Mahender.Korapu\.m2\repository\org\seleniumhq\selenium\selenium-devtools-v113\4.11.0\selenium-devtools-v113-4.11.0.jar;C:\Users\Mahender.Korapu\.m2\repository\org\seleniumhq\selenium\selenium-devtools-v114\4.11.0\selenium-devtools-v114-4.11.0.jar;C:\Users\Mahender.Korapu\.m2\repository\org\seleniumhq\selenium\selenium-devtools-v115\4.11.0\selenium-devtools-v115-4.11.0.jar;C:\Users\Mahender.Korapu\.m2\repository\org\seleniumhq\selenium\selenium-devtools-v85\4.11.0\selenium-devtools-v85-4.11.0.jar;C:\Users\Mahender.Korapu\.m2\repository\org\seleniumhq\selenium\selenium-edge-driver\4.11.0\selenium-edge-driver-4.11.0.jar;C:\Users\Mahender.Korapu\.m2\repository\org\seleniumhq\selenium\selenium-firefox-driver\4.11.0\selenium-firefox-driver-4.11.0.jar;C:\Users\Mahender.Korapu\.m2\repository\org\seleniumhq\selenium\selenium-http\4.11.0\selenium-http-4.11.0.jar;C:\Users\Mahender.Korapu\.m2\repository\dev\failsafe\failsafe\3.3.1\failsafe-3.3.1.jar;C:\Users\Mahender.Korapu\.m2\repository\org\seleniumhq\selenium\selenium-ie-driver\4.11.0\selenium-ie-driver-4.11.0.jar;C:\Users\Mahender.Korapu\.m2\repository\org\seleniumhq\selenium\selenium-remote-driver\4.11.0\selenium-remote-driver-4.11.0.jar;C:\Users\Mahender.Korapu\.m2\repository\io\netty\netty-buffer\4.1.92.Final\netty-buffer-4.1.92.Final.jar;C:\Users\Mahender.Korapu\.m2\repository\io\netty\netty-codec-http\4.1.92.Final\netty-codec-http-4.1.92.Final.jar;C:\Users\Mahender.Korapu\.m2\repository\io\netty\netty-codec\4.1.92.Final\netty-codec-4.1.92.Final.jar;C:\Users\Mahender.Korapu\.m2\repository\io\netty\netty-handler\4.1.92.Final\netty-handler-4.1.92.Final.jar;C:\Users\Mahender.Korapu\.m2\repository\io\netty\netty-common\4.1.92.Final\netty-common-4.1.92.Final.jar;C:\Users\Mahender.Korapu\.m2\repository\io\netty\netty-transport-classes-epoll\4.1.92.Final\netty-transport-classes-epoll-4.1.92.Final.jar;C:\Users\Mahender.Korapu\.m2\repository\io\netty\netty-transport-classes-kqueue\4.1.92.Final\netty-transport-classes-kqueue-4.1.92.Final.jar;C:\Users\Mahender.Korapu\.m2\repository\io\netty\netty-transport-native-epoll\4.1.92.Final\netty-transport-native-epoll-4.1.92.Final.jar;C:\Users\Mahender.Korapu\.m2\repository\io\netty\netty-transport-native-kqueue\4.1.92.Final\netty-transport-native-kqueue-4.1.92.Final.jar;C:\Users\Mahender.Korapu\.m2\repository\io\netty\netty-transport-native-unix-common\4.1.92.Final\netty-transport-native-unix-common-4.1.92.Final.jar;C:\Users\Mahender.Korapu\.m2\repository\io\netty\netty-transport\4.1.92.Final\netty-transport-4.1.92.Final.jar;C:\Users\Mahender.Korapu\.m2\repository\io\netty\netty-resolver\4.1.92.Final\netty-resolver-4.1.92.Final.jar;C:\Users\Mahender.Korapu\.m2\repository\io\opentelemetry\opentelemetry-api\1.26.0\opentelemetry-api-1.26.0.jar;C:\Users\Mahender.Korapu\.m2\repository\io\opentelemetry\opentelemetry-context\1.26.0\opentelemetry-context-1.26.0.jar;C:\Users\Mahender.Korapu\.m2\repository\io\opentelemetry\opentelemetry-exporter-logging\1.26.0\opentelemetry-exporter-logging-1.26.0.jar;C:\Users\Mahender.Korapu\.m2\repository\io\opentelemetry\opentelemetry-sdk-metrics\1.26.0\opentelemetry-sdk-metrics-1.26.0.jar;C:\Users\Mahender.Korapu\.m2\repository\io\opentelemetry\opentelemetry-extension-incubator\1.26.0-alpha\opentelemetry-extension-incubator-1.26.0-alpha.jar;C:\Users\Mahender.Korapu\.m2\repository\io\opentelemetry\opentelemetry-sdk-logs\1.26.0-alpha\opentelemetry-sdk-logs-1.26.0-alpha.jar;C:\Users\Mahender.Korapu\.m2\repository\io\opentelemetry\opentelemetry-api-logs\1.26.0-alpha\opentelemetry-api-logs-1.26.0-alpha.jar;C:\Users\Mahender.Korapu\.m2\repository\io\opentelemetry\opentelemetry-api-events\1.26.0-alpha\opentelemetry-api-events-1.26.0-alpha.jar;C:\Users\Mahender.Korapu\.m2\repository\io\opentelemetry\opentelemetry-sdk-common\1.26.0\opentelemetry-sdk-common-1.26.0.jar;C:\Users\Mahender.Korapu\.m2\repository\io\opentelemetry\opentelemetry-sdk-extension-autoconfigure-spi\1.26.0\opentelemetry-sdk-extension-autoconfigure-spi-1.26.0.jar;C:\Users\Mahender.Korapu\.m2\repository\io\opentelemetry\opentelemetry-sdk-extension-autoconfigure\1.26.0-alpha\opentelemetry-sdk-extension-autoconfigure-1.26.0-alpha.jar;C:\Users\Mahender.Korapu\.m2\repository\io\opentelemetry\opentelemetry-sdk-trace\1.26.0\opentelemetry-sdk-trace-1.26.0.jar;C:\Users\Mahender.Korapu\.m2\repository\io\opentelemetry\opentelemetry-sdk\1.26.0\opentelemetry-sdk-1.26.0.jar;C:\Users\Mahender.Korapu\.m2\repository\io\opentelemetry\opentelemetry-semconv\1.26.0-alpha\opentelemetry-semconv-1.26.0-alpha.jar;C:\Users\Mahender.Korapu\.m2\repository\net\bytebuddy\byte-buddy\1.14.4\byte-buddy-1.14.4.jar;C:\Users\Mahender.Korapu\.m2\repository\org\apache\commons\commons-exec\1.3\commons-exec-1.3.jar;C:\Users\Mahender.Korapu\.m2\repository\org\asynchttpclient\async-http-client\2.12.3\async-http-client-2.12.3.jar;C:\Users\Mahender.Korapu\.m2\repository\org\asynchttpclient\async-http-client-netty-utils\2.12.3\async-http-client-netty-utils-2.12.3.jar;C:\Users\Mahender.Korapu\.m2\repository\io\netty\netty-codec-socks\4.1.60.Final\netty-codec-socks-4.1.60.Final.jar;C:\Users\Mahender.Korapu\.m2\repository\io\netty\netty-handler-proxy\4.1.60.Final\netty-handler-proxy-4.1.60.Final.jar;C:\Users\Mahender.Korapu\.m2\repository\io\netty\netty-transport-native-epoll\4.1.60.Final\netty-transport-native-epoll-4.1.60.Final-linux-x86_64.jar;C:\Users\Mahender.Korapu\.m2\repository\io\netty\netty-transport-native-kqueue\4.1.60.Final\netty-transport-native-kqueue-4.1.60.Final-osx-x86_64.jar;C:\Users\Mahender.Korapu\.m2\repository\org\reactivestreams\reactive-streams\1.0.3\reactive-streams-1.0.3.jar;C:\Users\Mahender.Korapu\.m2\repository\com\typesafe\netty\netty-reactive-streams\2.0.4\netty-reactive-streams-2.0.4.jar;C:\Users\Mahender.Korapu\.m2\repository\com\sun\activation\jakarta.activation\1.2.2\jakarta.activation-1.2.2.jar;C:\Users\Mahender.Korapu\.m2\repository\org\seleniumhq\selenium\selenium-safari-driver\4.11.0\selenium-safari-driver-4.11.0.jar;C:\Users\Mahender.Korapu\.m2\repository\org\seleniumhq\selenium\selenium-support\4.11.0\selenium-support-4.11.0.jar;C:\Users\Mahender.Korapu\.m2\repository\io\github\bonigarcia\webdrivermanager\5.5.2\webdrivermanager-5.5.2.jar;C:\Users\Mahender.Korapu\.m2\repository\org\slf4j\slf4j-api\2.0.7\slf4j-api-2.0.7.jar;C:\Users\Mahender.Korapu\.m2\repository\com\google\code\gson\gson\2.10.1\gson-2.10.1.jar;C:\Users\Mahender.Korapu\.m2\repository\com\github\docker-java\docker-java\3.3.3\docker-java-3.3.3.jar;C:\Users\Mahender.Korapu\.m2\repository\com\github\docker-java\docker-java-core\3.3.3\docker-java-core-3.3.3.jar;C:\Users\Mahender.Korapu\.m2\repository\com\github\docker-java\docker-java-api\3.3.3\docker-java-api-3.3.3.jar;C:\Users\Mahender.Korapu\.m2\repository\com\fasterxml\jackson\core\jackson-annotations\2.10.3\jackson-annotations-2.10.3.jar;C:\Users\Mahender.Korapu\.m2\repository\commons-io\commons-io\2.6\commons-io-2.6.jar;C:\Users\Mahender.Korapu\.m2\repository\org\apache\commons\commons-compress\1.21\commons-compress-1.21.jar;C:\Users\Mahender.Korapu\.m2\repository\com\fasterxml\jackson\core\jackson-databind\2.10.3\jackson-databind-2.10.3.jar;C:\Users\Mahender.Korapu\.m2\repository\com\fasterxml\jackson\core\jackson-core\2.10.3\jackson-core-2.10.3.jar;C:\Users\Mahender.Korapu\.m2\repository\org\bouncycastle\bcpkix-jdk18on\1.75\bcpkix-jdk18on-1.75.jar;C:\Users\Mahender.Korapu\.m2\repository\org\bouncycastle\bcprov-jdk18on\1.75\bcprov-jdk18on-1.75.jar;C:\Users\Mahender.Korapu\.m2\repository\org\bouncycastle\bcutil-jdk18on\1.75\bcutil-jdk18on-1.75.jar;C:\Users\Mahender.Korapu\.m2\repository\org\slf4j\jcl-over-slf4j\1.7.30\jcl-over-slf4j-1.7.30.jar;C:\Users\Mahender.Korapu\.m2\repository\com\github\docker-java\docker-java-transport-httpclient5\3.3.3\docker-java-transport-httpclient5-3.3.3.jar;C:\Users\Mahender.Korapu\.m2\repository\com\github\docker-java\docker-java-transport\3.3.3\docker-java-transport-3.3.3.jar;C:\Users\Mahender.Korapu\.m2\repository\net\java\dev\jna\jna\5.12.1\jna-5.12.1.jar;C:\Users\Mahender.Korapu\.m2\repository\org\brotli\dec\0.1.2\dec-0.1.2.jar;C:\Users\Mahender.Korapu\.m2\repository\org\apache\commons\commons-lang3\3.13.0\commons-lang3-3.13.0.jar;C:\Users\Mahender.Korapu\.m2\repository\org\apache\httpcomponents\client5\httpclient5\5.2.1\httpclient5-5.2.1.jar;C:\Users\Mahender.Korapu\.m2\repository\org\apache\httpcomponents\core5\httpcore5\5.2\httpcore5-5.2.jar;C:\Users\Mahender.Korapu\.m2\repository\org\apache\httpcomponents\core5\httpcore5-h2\5.2\httpcore5-h2-5.2.jar;C:\Users\Mahender.Korapu\.m2\repository\org\testng\testng\7.4.0\testng-7.4.0.jar;C:\Users\Mahender.Korapu\.m2\repository\com\beust\jcommander\1.78\jcommander-1.78.jar;C:\Users\Mahender.Korapu\.m2\repository\org\webjars\jquery\3.5.1\jquery-3.5.1.jar;"/>
    <property name="threadcount" value="1"/>
    <property name="java.vm.vendor" value="Oracle Corporation"/>
    <property name="sun.arch.data.model" value="64"/>
    <property name="test_environment" value="dev"/>
    <property name="user.variant" value=""/>
    <property name="java.vendor.url" value="http://java.oracle.com/"/>
    <property name="user.timezone" value="Asia/Calcutta"/>
    <property name="java.vm.specification.version" value="11"/>
    <property name="os.name" value="Windows 10"/>
    <property name="sun.java.launcher" value="SUN_STANDARD"/>
    <property name="user.country" value="IN"/>
    <property name="sun.boot.library.path" value="C:\SonarQube\jdk-11\bin"/>
    <property name="sun.java.command" value="C:\Users\Mahender.Korapu\AppData\Local\Temp\surefire362597158204611893\surefirebooter-20231201134038061_3.jar C:\Users\Mahender.Korapu\AppData\Local\Temp\surefire362597158204611893 2023-12-01T13-40-37_652-jvmRun1 surefire-20231201134038061_1tmp surefire_0-20231201134038061_2tmp"/>
    <property name="jdk.debug" value="release"/>
    <property name="surefire.test.class.path" value="D:\Aracter_Project\Mahender\ArcatarTestAutomation\WebAutomation\target\test-classes;D:\Aracter_Project\Mahender\ArcatarTestAutomation\WebAutomation\target\classes;C:\Users\Mahender.Korapu\.m2\repository\io\cucumber\cucumber-java\7.6.0\cucumber-java-7.6.0.jar;C:\Users\Mahender.Korapu\.m2\repository\io\cucumber\cucumber-core\7.6.0\cucumber-core-7.6.0.jar;C:\Users\Mahender.Korapu\.m2\repository\io\cucumber\cucumber-gherkin\7.6.0\cucumber-gherkin-7.6.0.jar;C:\Users\Mahender.Korapu\.m2\repository\io\cucumber\cucumber-gherkin-messages\7.6.0\cucumber-gherkin-messages-7.6.0.jar;C:\Users\Mahender.Korapu\.m2\repository\io\cucumber\gherkin\24.0.0\gherkin-24.0.0.jar;C:\Users\Mahender.Korapu\.m2\repository\io\cucumber\messages\19.0.0\messages-19.0.0.jar;C:\Users\Mahender.Korapu\.m2\repository\io\cucumber\tag-expressions\4.1.0\tag-expressions-4.1.0.jar;C:\Users\Mahender.Korapu\.m2\repository\io\cucumber\cucumber-expressions\16.0.0\cucumber-expressions-16.0.0.jar;C:\Users\Mahender.Korapu\.m2\repository\io\cucumber\datatable\7.6.0\datatable-7.6.0.jar;C:\Users\Mahender.Korapu\.m2\repository\io\cucumber\cucumber-plugin\7.6.0\cucumber-plugin-7.6.0.jar;C:\Users\Mahender.Korapu\.m2\repository\io\cucumber\docstring\7.6.0\docstring-7.6.0.jar;C:\Users\Mahender.Korapu\.m2\repository\io\cucumber\html-formatter\20.0.0\html-formatter-20.0.0.jar;C:\Users\Mahender.Korapu\.m2\repository\io\cucumber\ci-environment\9.1.0\ci-environment-9.1.0.jar;C:\Users\Mahender.Korapu\.m2\repository\org\apiguardian\apiguardian-api\1.1.2\apiguardian-api-1.1.2.jar;C:\Users\Mahender.Korapu\.m2\repository\io\cucumber\cucumber-testng\7.6.0\cucumber-testng-7.6.0.jar;C:\Users\Mahender.Korapu\.m2\repository\io\cucumber\cucumber-picocontainer\5.4.2\cucumber-picocontainer-5.4.2.jar;C:\Users\Mahender.Korapu\.m2\repository\org\picocontainer\picocontainer\2.15\picocontainer-2.15.jar;C:\Users\Mahender.Korapu\.m2\repository\org\seleniumhq\selenium\selenium-java\4.11.0\selenium-java-4.11.0.jar;C:\Users\Mahender.Korapu\.m2\repository\org\seleniumhq\selenium\selenium-api\4.11.0\selenium-api-4.11.0.jar;C:\Users\Mahender.Korapu\.m2\repository\org\seleniumhq\selenium\selenium-chrome-driver\4.11.0\selenium-chrome-driver-4.11.0.jar;C:\Users\Mahender.Korapu\.m2\repository\com\google\auto\service\auto-service-annotations\1.0.1\auto-service-annotations-1.0.1.jar;C:\Users\Mahender.Korapu\.m2\repository\com\google\guava\guava\31.1-jre\guava-31.1-jre.jar;C:\Users\Mahender.Korapu\.m2\repository\com\google\guava\failureaccess\1.0.1\failureaccess-1.0.1.jar;C:\Users\Mahender.Korapu\.m2\repository\com\google\guava\listenablefuture\9999.0-empty-to-avoid-conflict-with-guava\listenablefuture-9999.0-empty-to-avoid-conflict-with-guava.jar;C:\Users\Mahender.Korapu\.m2\repository\com\google\code\findbugs\jsr305\3.0.2\jsr305-3.0.2.jar;C:\Users\Mahender.Korapu\.m2\repository\org\checkerframework\checker-qual\3.12.0\checker-qual-3.12.0.jar;C:\Users\Mahender.Korapu\.m2\repository\com\google\errorprone\error_prone_annotations\2.11.0\error_prone_annotations-2.11.0.jar;C:\Users\Mahender.Korapu\.m2\repository\com\google\j2objc\j2objc-annotations\1.3\j2objc-annotations-1.3.jar;C:\Users\Mahender.Korapu\.m2\repository\org\seleniumhq\selenium\selenium-chromium-driver\4.11.0\selenium-chromium-driver-4.11.0.jar;C:\Users\Mahender.Korapu\.m2\repository\org\seleniumhq\selenium\selenium-json\4.11.0\selenium-json-4.11.0.jar;C:\Users\Mahender.Korapu\.m2\repository\org\seleniumhq\selenium\selenium-manager\4.11.0\selenium-manager-4.11.0.jar;C:\Users\Mahender.Korapu\.m2\repository\org\seleniumhq\selenium\selenium-devtools-v113\4.11.0\selenium-devtools-v113-4.11.0.jar;C:\Users\Mahender.Korapu\.m2\repository\org\seleniumhq\selenium\selenium-devtools-v114\4.11.0\selenium-devtools-v114-4.11.0.jar;C:\Users\Mahender.Korapu\.m2\repository\org\seleniumhq\selenium\selenium-devtools-v115\4.11.0\selenium-devtools-v115-4.11.0.jar;C:\Users\Mahender.Korapu\.m2\repository\org\seleniumhq\selenium\selenium-devtools-v85\4.11.0\selenium-devtools-v85-4.11.0.jar;C:\Users\Mahender.Korapu\.m2\repository\org\seleniumhq\selenium\selenium-edge-driver\4.11.0\selenium-edge-driver-4.11.0.jar;C:\Users\Mahender.Korapu\.m2\repository\org\seleniumhq\selenium\selenium-firefox-driver\4.11.0\selenium-firefox-driver-4.11.0.jar;C:\Users\Mahender.Korapu\.m2\repository\org\seleniumhq\selenium\selenium-http\4.11.0\selenium-http-4.11.0.jar;C:\Users\Mahender.Korapu\.m2\repository\dev\failsafe\failsafe\3.3.1\failsafe-3.3.1.jar;C:\Users\Mahender.Korapu\.m2\repository\org\seleniumhq\selenium\selenium-ie-driver\4.11.0\selenium-ie-driver-4.11.0.jar;C:\Users\Mahender.Korapu\.m2\repository\org\seleniumhq\selenium\selenium-remote-driver\4.11.0\selenium-remote-driver-4.11.0.jar;C:\Users\Mahender.Korapu\.m2\repository\io\netty\netty-buffer\4.1.92.Final\netty-buffer-4.1.92.Final.jar;C:\Users\Mahender.Korapu\.m2\repository\io\netty\netty-codec-http\4.1.92.Final\netty-codec-http-4.1.92.Final.jar;C:\Users\Mahender.Korapu\.m2\repository\io\netty\netty-codec\4.1.92.Final\netty-codec-4.1.92.Final.jar;C:\Users\Mahender.Korapu\.m2\repository\io\netty\netty-handler\4.1.92.Final\netty-handler-4.1.92.Final.jar;C:\Users\Mahender.Korapu\.m2\repository\io\netty\netty-common\4.1.92.Final\netty-common-4.1.92.Final.jar;C:\Users\Mahender.Korapu\.m2\repository\io\netty\netty-transport-classes-epoll\4.1.92.Final\netty-transport-classes-epoll-4.1.92.Final.jar;C:\Users\Mahender.Korapu\.m2\repository\io\netty\netty-transport-classes-kqueue\4.1.92.Final\netty-transport-classes-kqueue-4.1.92.Final.jar;C:\Users\Mahender.Korapu\.m2\repository\io\netty\netty-transport-native-epoll\4.1.92.Final\netty-transport-native-epoll-4.1.92.Final.jar;C:\Users\Mahender.Korapu\.m2\repository\io\netty\netty-transport-native-kqueue\4.1.92.Final\netty-transport-native-kqueue-4.1.92.Final.jar;C:\Users\Mahender.Korapu\.m2\repository\io\netty\netty-transport-native-unix-common\4.1.92.Final\netty-transport-native-unix-common-4.1.92.Final.jar;C:\Users\Mahender.Korapu\.m2\repository\io\netty\netty-transport\4.1.92.Final\netty-transport-4.1.92.Final.jar;C:\Users\Mahender.Korapu\.m2\repository\io\netty\netty-resolver\4.1.92.Final\netty-resolver-4.1.92.Final.jar;C:\Users\Mahender.Korapu\.m2\repository\io\opentelemetry\opentelemetry-api\1.26.0\opentelemetry-api-1.26.0.jar;C:\Users\Mahender.Korapu\.m2\repository\io\opentelemetry\opentelemetry-context\1.26.0\opentelemetry-context-1.26.0.jar;C:\Users\Mahender.Korapu\.m2\repository\io\opentelemetry\opentelemetry-exporter-logging\1.26.0\opentelemetry-exporter-logging-1.26.0.jar;C:\Users\Mahender.Korapu\.m2\repository\io\opentelemetry\opentelemetry-sdk-metrics\1.26.0\opentelemetry-sdk-metrics-1.26.0.jar;C:\Users\Mahender.Korapu\.m2\repository\io\opentelemetry\opentelemetry-extension-incubator\1.26.0-alpha\opentelemetry-extension-incubator-1.26.0-alpha.jar;C:\Users\Mahender.Korapu\.m2\repository\io\opentelemetry\opentelemetry-sdk-logs\1.26.0-alpha\opentelemetry-sdk-logs-1.26.0-alpha.jar;C:\Users\Mahender.Korapu\.m2\repository\io\opentelemetry\opentelemetry-api-logs\1.26.0-alpha\opentelemetry-api-logs-1.26.0-alpha.jar;C:\Users\Mahender.Korapu\.m2\repository\io\opentelemetry\opentelemetry-api-events\1.26.0-alpha\opentelemetry-api-events-1.26.0-alpha.jar;C:\Users\Mahender.Korapu\.m2\repository\io\opentelemetry\opentelemetry-sdk-common\1.26.0\opentelemetry-sdk-common-1.26.0.jar;C:\Users\Mahender.Korapu\.m2\repository\io\opentelemetry\opentelemetry-sdk-extension-autoconfigure-spi\1.26.0\opentelemetry-sdk-extension-autoconfigure-spi-1.26.0.jar;C:\Users\Mahender.Korapu\.m2\repository\io\opentelemetry\opentelemetry-sdk-extension-autoconfigure\1.26.0-alpha\opentelemetry-sdk-extension-autoconfigure-1.26.0-alpha.jar;C:\Users\Mahender.Korapu\.m2\repository\io\opentelemetry\opentelemetry-sdk-trace\1.26.0\opentelemetry-sdk-trace-1.26.0.jar;C:\Users\Mahender.Korapu\.m2\repository\io\opentelemetry\opentelemetry-sdk\1.26.0\opentelemetry-sdk-1.26.0.jar;C:\Users\Mahender.Korapu\.m2\repository\io\opentelemetry\opentelemetry-semconv\1.26.0-alpha\opentelemetry-semconv-1.26.0-alpha.jar;C:\Users\Mahender.Korapu\.m2\repository\net\bytebuddy\byte-buddy\1.14.4\byte-buddy-1.14.4.jar;C:\Users\Mahender.Korapu\.m2\repository\org\apache\commons\commons-exec\1.3\commons-exec-1.3.jar;C:\Users\Mahender.Korapu\.m2\repository\org\asynchttpclient\async-http-client\2.12.3\async-http-client-2.12.3.jar;C:\Users\Mahender.Korapu\.m2\repository\org\asynchttpclient\async-http-client-netty-utils\2.12.3\async-http-client-netty-utils-2.12.3.jar;C:\Users\Mahender.Korapu\.m2\repository\io\netty\netty-codec-socks\4.1.60.Final\netty-codec-socks-4.1.60.Final.jar;C:\Users\Mahender.Korapu\.m2\repository\io\netty\netty-handler-proxy\4.1.60.Final\netty-handler-proxy-4.1.60.Final.jar;C:\Users\Mahender.Korapu\.m2\repository\io\netty\netty-transport-native-epoll\4.1.60.Final\netty-transport-native-epoll-4.1.60.Final-linux-x86_64.jar;C:\Users\Mahender.Korapu\.m2\repository\io\netty\netty-transport-native-kqueue\4.1.60.Final\netty-transport-native-kqueue-4.1.60.Final-osx-x86_64.jar;C:\Users\Mahender.Korapu\.m2\repository\org\reactivestreams\reactive-streams\1.0.3\reactive-streams-1.0.3.jar;C:\Users\Mahender.Korapu\.m2\repository\com\typesafe\netty\netty-reactive-streams\2.0.4\netty-reactive-streams-2.0.4.jar;C:\Users\Mahender.Korapu\.m2\repository\com\sun\activation\jakarta.activation\1.2.2\jakarta.activation-1.2.2.jar;C:\Users\Mahender.Korapu\.m2\repository\org\seleniumhq\selenium\selenium-safari-driver\4.11.0\selenium-safari-driver-4.11.0.jar;C:\Users\Mahender.Korapu\.m2\repository\org\seleniumhq\selenium\selenium-support\4.11.0\selenium-support-4.11.0.jar;C:\Users\Mahender.Korapu\.m2\repository\io\github\bonigarcia\webdrivermanager\5.5.2\webdrivermanager-5.5.2.jar;C:\Users\Mahender.Korapu\.m2\repository\org\slf4j\slf4j-api\2.0.7\slf4j-api-2.0.7.jar;C:\Users\Mahender.Korapu\.m2\repository\com\google\code\gson\gson\2.10.1\gson-2.10.1.jar;C:\Users\Mahender.Korapu\.m2\repository\com\github\docker-java\docker-java\3.3.3\docker-java-3.3.3.jar;C:\Users\Mahender.Korapu\.m2\repository\com\github\docker-java\docker-java-core\3.3.3\docker-java-core-3.3.3.jar;C:\Users\Mahender.Korapu\.m2\repository\com\github\docker-java\docker-java-api\3.3.3\docker-java-api-3.3.3.jar;C:\Users\Mahender.Korapu\.m2\repository\com\fasterxml\jackson\core\jackson-annotations\2.10.3\jackson-annotations-2.10.3.jar;C:\Users\Mahender.Korapu\.m2\repository\commons-io\commons-io\2.6\commons-io-2.6.jar;C:\Users\Mahender.Korapu\.m2\repository\org\apache\commons\commons-compress\1.21\commons-compress-1.21.jar;C:\Users\Mahender.Korapu\.m2\repository\com\fasterxml\jackson\core\jackson-databind\2.10.3\jackson-databind-2.10.3.jar;C:\Users\Mahender.Korapu\.m2\repository\com\fasterxml\jackson\core\jackson-core\2.10.3\jackson-core-2.10.3.jar;C:\Users\Mahender.Korapu\.m2\repository\org\bouncycastle\bcpkix-jdk18on\1.75\bcpkix-jdk18on-1.75.jar;C:\Users\Mahender.Korapu\.m2\repository\org\bouncycastle\bcprov-jdk18on\1.75\bcprov-jdk18on-1.75.jar;C:\Users\Mahender.Korapu\.m2\repository\org\bouncycastle\bcutil-jdk18on\1.75\bcutil-jdk18on-1.75.jar;C:\Users\Mahender.Korapu\.m2\repository\org\slf4j\jcl-over-slf4j\1.7.30\jcl-over-slf4j-1.7.30.jar;C:\Users\Mahender.Korapu\.m2\repository\com\github\docker-java\docker-java-transport-httpclient5\3.3.3\docker-java-transport-httpclient5-3.3.3.jar;C:\Users\Mahender.Korapu\.m2\repository\com\github\docker-java\docker-java-transport\3.3.3\docker-java-transport-3.3.3.jar;C:\Users\Mahender.Korapu\.m2\repository\net\java\dev\jna\jna\5.12.1\jna-5.12.1.jar;C:\Users\Mahender.Korapu\.m2\repository\org\brotli\dec\0.1.2\dec-0.1.2.jar;C:\Users\Mahender.Korapu\.m2\repository\org\apache\commons\commons-lang3\3.13.0\commons-lang3-3.13.0.jar;C:\Users\Mahender.Korapu\.m2\repository\org\apache\httpcomponents\client5\httpclient5\5.2.1\httpclient5-5.2.1.jar;C:\Users\Mahender.Korapu\.m2\repository\org\apache\httpcomponents\core5\httpcore5\5.2\httpcore5-5.2.jar;C:\Users\Mahender.Korapu\.m2\repository\org\apache\httpcomponents\core5\httpcore5-h2\5.2\httpcore5-h2-5.2.jar;C:\Users\Mahender.Korapu\.m2\repository\org\testng\testng\7.4.0\testng-7.4.0.jar;C:\Users\Mahender.Korapu\.m2\repository\com\beust\jcommander\1.78\jcommander-1.78.jar;C:\Users\Mahender.Korapu\.m2\repository\org\webjars\jquery\3.5.1\jquery-3.5.1.jar;"/>
    <property name="sun.cpu.endian" value="little"/>
    <property name="user.home" value="C:\Users\Mahender.Korapu"/>
    <property name="user.language" value="en"/>
    <property name="java.specification.vendor" value="Oracle Corporation"/>
    <property name="java.version.date" value="2018-09-25"/>
    <property name="java.home" value="C:\SonarQube\jdk-11"/>
    <property name="testbrowser.headless" value="false"/>
    <property name="file.separator" value="\"/>
    <property name="basedir" value="D:\Aracter_Project\Mahender\ArcatarTestAutomation\WebAutomation"/>
    <property name="java.vm.compressedOopsMode" value="32-bit"/>
    <property name="line.separator" value="&#10;"/>
    <property name="test_browser" value="Chrome"/>
    <property name="java.specification.name" value="Java Platform API Specification"/>
    <property name="java.vm.specification.vendor" value="Oracle Corporation"/>
    <property name="java.awt.graphicsenv" value="sun.awt.Win32GraphicsEnvironment"/>
    <property name="surefire.real.class.path" value="C:\Users\Mahender.Korapu\AppData\Local\Temp\surefire362597158204611893\surefirebooter-20231201134038061_3.jar"/>
    <property name="user.script" value=""/>
    <property name="sun.management.compiler" value="HotSpot 64-Bit Tiered Compilers"/>
    <property name="java.runtime.version" value="11+28"/>
    <property name="user.name" value="Mahender.Korapu"/>
    <property name="path.separator" value=";"/>
    <property name="os.version" value="10.0"/>
    <property name="java.runtime.name" value="OpenJDK Runtime Environment"/>
    <property name="file.encoding" value="Cp1252"/>
    <property name="java.vm.name" value="OpenJDK 64-Bit Server VM"/>
    <property name="java.vendor.version" value="18.9"/>
    <property name="localRepository" value="C:\Users\Mahender.Korapu\.m2\repository"/>
    <property name="java.vendor.url.bug" value="http://bugreport.java.com/bugreport/"/>
    <property name="java.io.tmpdir" value="C:\Users\MAHEND~1.KOR\AppData\Local\Temp\"/>
    <property name="java.version" value="11"/>
    <property name="cucumber.filter.tags" value="@smoke and not @outofscope"/>
    <property name="user.dir" value="D:\Aracter_Project\Mahender\ArcatarTestAutomation\WebAutomation"/>
    <property name="os.arch" value="amd64"/>
    <property name="java.vm.specification.name" value="Java Virtual Machine Specification"/>
    <property name="java.awt.printerjob" value="sun.awt.windows.WPrinterJob"/>
    <property name="sun.os.patch.level" value=""/>
    <property name="java.library.path" value="C:\SonarQube\jdk-11\bin;C:\WINDOWS\Sun\Java\bin;C:\WINDOWS\system32;C:\WINDOWS;C:/Users/Mahender.Korapu/.p2/pool/plugins/org.eclipse.justj.openjdk.hotspot.jre.full.win32.x86_64_17.0.1.v20211116-1657/jre/bin/server;C:/Users/Mahender.Korapu/.p2/pool/plugins/org.eclipse.justj.openjdk.hotspot.jre.full.win32.x86_64_17.0.1.v20211116-1657/jre/bin;C:\Program Files\Eclipse Foundation\jdk-8.0.302.8-hotspot\bin;C:\Users\Mahender.Korapu\AppData\Local\Google\google-cloud-sdk\bin;C:\Ruby30\bin;C:\SonarQube\jdk-11\bin;C:\Users\Mahender.Korapu\AppData\Local\Programs\Python\Python311;C:\Users\Mahender.Korapu\AppData\Local\Programs\Python\Python311\Scripts;C:\Users\Mahender.Korapu\AppData\Local\Programs\Python\Python311\Lib\site-packages;C:\Users\Mahender.Korapu\AppData\Local\Programs\Python\Python311\DLLs;C:\Program Files\Git\cmd;C:\Program Files\dotnet\;C:\Program Files (x86)\Windows Kits\10\Windows Performance Toolkit\;C:\Program Files\Microsoft SQL Server\130\Tools\Binn\;C:\Program Files\Microsoft SQL Server\Client SDK\ODBC\170\Tools\Binn\;C:\Users\Mahender.Korapu\AppData\Local\Android\Sdk\platform-tools;C:\Program Files\apache-maven-3.9.5\bin;;C:\Program Files\Docker\Docker\resources\bin;C:\Users\Mahender.Korapu\AppData\Local\Google\google-cloud-sdk\bin;C:\Program Files (x86)\Google\Cloud SDK\google-cloud-sdk\bin;C:\Program Files\Git;C:\Program Files\JetBrains\PyCharm Community Edition 2022.1.3\bin;;C:\Users\Mahender.Korapu\AppData\Local\GitHubDesktop\bin;C:\Users\Mahender.Korapu\Desktop;;."/>
    <property name="java.vendor" value="Oracle Corporation"/>
    <property name="java.vm.info" value="mixed mode"/>
    <property name="java.vm.version" value="11+28"/>
    <property name="sun.io.unicode.encoding" value="UnicodeLittle"/>
    <property name="java.class.version" value="55.0"/>
  </properties>
  <testcase name="runScenario[&quot;Login with valid Amazon Identity account&quot;, &quot;Login to ARCatar Platform with different Identities&quot;](1)" classname="com.functional.steps.RunnerClass" time="62.247">
    <system-err><![CDATA[Dec 01, 2023 1:40:39 PM com.functional.utilities.DriverSettings readConfig
INFO: Reading Configuration file..........
Dec 01, 2023 1:40:39 PM com.functional.utilities.DriverSettings readConfig
INFO: Loading Configuration file..........D:\Aracter_Project\Mahender\ArcatarTestAutomation\WebAutomation\target\test-classes\com\functional\assets\config.properties
Dec 01, 2023 1:40:39 PM com.functional.utilities.DriverSettings readConfig
INFO: Properties file loaded..........
Dec 01, 2023 1:40:39 PM com.functional.utilities.DriverSettings initializeDriver
INFO: Running locally.... WebDriver instance initialized!!
SLF4J: No SLF4J providers were found.
SLF4J: Defaulting to no-operation (NOP) logger implementation
SLF4J: See https://www.slf4j.org/codes.html#noProviders for further details.
Dec 01, 2023 1:40:46 PM org.openqa.selenium.devtools.CdpVersionFinder findNearestMatch
WARNING: Unable to find an exact match for CDP version 119, so returning the closest version found: 115
Dec 01, 2023 1:40:46 PM com.functional.steps.BaseClass setUp
INFO: -------------------------------------------------------------------------
Dec 01, 2023 1:40:46 PM com.functional.steps.BaseClass setUp
INFO: .......................Browser has started sucessfully....................
Dec 01, 2023 1:40:46 PM com.functional.steps.BaseClass setUp
INFO: .......Login with valid Amazon Identity account Test Execution has started ......
Dec 01, 2023 1:40:46 PM com.functional.steps.BaseClass setUp
INFO: -------------------------------------------------------------------------
Dec 01, 2023 1:40:46 PM com.functional.utilities.Helpers getTestURLs
INFO: Loading Test URLs file..........D:\Aracter_Project\Mahender\ArcatarTestAutomation\WebAutomation\target\test-classes\com\functional\assets\testUrl.properties
Dec 01, 2023 1:40:46 PM com.functional.utilities.Helpers getTestURLs
INFO: Test URLs file loaded..........
Dec 01, 2023 1:40:54 PM com.functional.steps.ArcatarLandingPageSteps user_is_on_arcatar_landing_page
INFO: Launching Arcatar Application ......
Dec 01, 2023 1:41:01 PM com.functional.steps.ArcatarLandingPageSteps user_selects_the_Amazon_Identity
INFO: User selected Amazon Identity ......
Dec 01, 2023 1:41:01 PM com.functional.utilities.Helpers getTestData
INFO: Loading Test Data file..........D:\Aracter_Project\Mahender\ArcatarTestAutomation\WebAutomation\target\test-classes\com\functional\assets\testdata.properties
Dec 01, 2023 1:41:01 PM com.functional.utilities.Helpers getTestData
INFO: Test Data file loaded..........
Dec 01, 2023 1:41:01 PM com.functional.utilities.Helpers getTestData
INFO: Loading Test Data file..........D:\Aracter_Project\Mahender\ArcatarTestAutomation\WebAutomation\target\test-classes\com\functional\assets\testdata.properties
Dec 01, 2023 1:41:01 PM com.functional.utilities.Helpers getTestData
INFO: Test Data file loaded..........
Dec 01, 2023 1:41:41 PM com.functional.steps.IdentityLoginPageSteps logs_in_with_valid_Amazon_credentials
INFO: User entered valid Amazon credentials and submitted ......
Dec 01, 2023 1:41:41 PM com.functional.steps.ArcatarDashboardPageSteps user_navigates_to_arcatar_dashboard_page
INFO: ARCatar | Account Management Dashboard Page
Dec 01, 2023 1:41:41 PM com.functional.utilities.Helpers getTestURLs
INFO: Loading Test URLs file..........D:\Aracter_Project\Mahender\ArcatarTestAutomation\WebAutomation\target\test-classes\com\functional\assets\testUrl.properties
Dec 01, 2023 1:41:41 PM com.functional.utilities.Helpers getTestURLs
INFO: Test URLs file loaded..........
Dec 01, 2023 1:41:41 PM com.functional.steps.BaseClass takeScreenshotOnFailure
INFO: -------------------------------------------------------------------
Dec 01, 2023 1:41:41 PM com.functional.steps.BaseClass takeScreenshotOnFailure
INFO: Test Passed for the scenario: Login with valid Amazon Identity account
Dec 01, 2023 1:41:41 PM com.functional.steps.BaseClass takeScreenshotOnFailure
INFO: -------------------------------------------------------------------
Dec 01, 2023 1:41:41 PM com.functional.steps.BaseClass teardown
INFO: -------------------------------------------------------------------
Dec 01, 2023 1:41:41 PM com.functional.steps.BaseClass teardown
INFO: Test Execution completed for the scenario successfully: Login with valid Amazon Identity account
Dec 01, 2023 1:41:41 PM com.functional.steps.BaseClass teardown
INFO: -------------------------------------------------------------------
]]></system-err>
  </testcase>
  <testcase name="runScenario[&quot;Select Google Identity&quot;, &quot;Select Identity providers on the ARCatar Landing Page&quot;](2)" classname="com.functional.steps.RunnerClass" time="15.984">
    <system-err><![CDATA[Dec 01, 2023 1:41:41 PM com.functional.utilities.DriverSettings readConfig
INFO: Reading Configuration file..........
Dec 01, 2023 1:41:41 PM com.functional.utilities.DriverSettings readConfig
INFO: Loading Configuration file..........D:\Aracter_Project\Mahender\ArcatarTestAutomation\WebAutomation\target\test-classes\com\functional\assets\config.properties
Dec 01, 2023 1:41:41 PM com.functional.utilities.DriverSettings readConfig
INFO: Properties file loaded..........
Dec 01, 2023 1:41:41 PM com.functional.utilities.DriverSettings initializeDriver
INFO: Running locally.... WebDriver instance initialized!!
Dec 01, 2023 1:41:43 PM org.openqa.selenium.devtools.CdpVersionFinder findNearestMatch
WARNING: Unable to find an exact match for CDP version 119, so returning the closest version found: 115
Dec 01, 2023 1:41:43 PM com.functional.steps.BaseClass setUp
INFO: -------------------------------------------------------------------------
Dec 01, 2023 1:41:43 PM com.functional.steps.BaseClass setUp
INFO: .......................Browser has started sucessfully....................
Dec 01, 2023 1:41:43 PM com.functional.steps.BaseClass setUp
INFO: .......Select Google Identity Test Execution has started ......
Dec 01, 2023 1:41:43 PM com.functional.steps.BaseClass setUp
INFO: -------------------------------------------------------------------------
Dec 01, 2023 1:41:43 PM com.functional.utilities.Helpers getTestURLs
INFO: Loading Test URLs file..........D:\Aracter_Project\Mahender\ArcatarTestAutomation\WebAutomation\target\test-classes\com\functional\assets\testUrl.properties
Dec 01, 2023 1:41:43 PM com.functional.utilities.Helpers getTestURLs
INFO: Test URLs file loaded..........
Dec 01, 2023 1:41:50 PM com.functional.steps.ArcatarLandingPageSteps user_is_on_arcatar_landing_page
INFO: Launching Arcatar Application ......
Dec 01, 2023 1:41:57 PM com.functional.steps.ArcatarLandingPageSteps user_selects_the_Google_Identity
INFO: User selected Google Identity ......
Dec 01, 2023 1:41:57 PM com.functional.steps.BaseClass takeScreenshotOnFailure
INFO: -------------------------------------------------------------------
Dec 01, 2023 1:41:57 PM com.functional.steps.BaseClass takeScreenshotOnFailure
INFO: Test Passed for the scenario: Select Google Identity
Dec 01, 2023 1:41:57 PM com.functional.steps.BaseClass takeScreenshotOnFailure
INFO: -------------------------------------------------------------------
Dec 01, 2023 1:41:57 PM com.functional.steps.BaseClass teardown
INFO: -------------------------------------------------------------------
Dec 01, 2023 1:41:57 PM com.functional.steps.BaseClass teardown
INFO: Test Execution completed for the scenario successfully: Select Google Identity
Dec 01, 2023 1:41:57 PM com.functional.steps.BaseClass teardown
INFO: -------------------------------------------------------------------
]]></system-err>
  </testcase>
  <testcase name="runScenario[&quot;Select Apple Identity&quot;, &quot;Select Identity providers on the ARCatar Landing Page&quot;](3)" classname="com.functional.steps.RunnerClass" time="19.758">
    <system-err><![CDATA[Dec 01, 2023 1:41:57 PM com.functional.utilities.DriverSettings readConfig
INFO: Reading Configuration file..........
Dec 01, 2023 1:41:57 PM com.functional.utilities.DriverSettings readConfig
INFO: Loading Configuration file..........D:\Aracter_Project\Mahender\ArcatarTestAutomation\WebAutomation\target\test-classes\com\functional\assets\config.properties
Dec 01, 2023 1:41:57 PM com.functional.utilities.DriverSettings readConfig
INFO: Properties file loaded..........
Dec 01, 2023 1:41:57 PM com.functional.utilities.DriverSettings initializeDriver
INFO: Running locally.... WebDriver instance initialized!!
Dec 01, 2023 1:41:59 PM org.openqa.selenium.devtools.CdpVersionFinder findNearestMatch
WARNING: Unable to find an exact match for CDP version 119, so returning the closest version found: 115
Dec 01, 2023 1:41:59 PM com.functional.steps.BaseClass setUp
INFO: -------------------------------------------------------------------------
Dec 01, 2023 1:41:59 PM com.functional.steps.BaseClass setUp
INFO: .......................Browser has started sucessfully....................
Dec 01, 2023 1:41:59 PM com.functional.steps.BaseClass setUp
INFO: .......Select Apple Identity Test Execution has started ......
Dec 01, 2023 1:41:59 PM com.functional.steps.BaseClass setUp
INFO: -------------------------------------------------------------------------
Dec 01, 2023 1:41:59 PM com.functional.utilities.Helpers getTestURLs
INFO: Loading Test URLs file..........D:\Aracter_Project\Mahender\ArcatarTestAutomation\WebAutomation\target\test-classes\com\functional\assets\testUrl.properties
Dec 01, 2023 1:41:59 PM com.functional.utilities.Helpers getTestURLs
INFO: Test URLs file loaded..........
Dec 01, 2023 1:42:07 PM com.functional.steps.ArcatarLandingPageSteps user_is_on_arcatar_landing_page
INFO: Launching Arcatar Application ......
Dec 01, 2023 1:42:17 PM com.functional.steps.ArcatarLandingPageSteps user_selects_the_Apple_Identity
INFO: User selected Apple Identity ......
Dec 01, 2023 1:42:17 PM com.functional.steps.BaseClass takeScreenshotOnFailure
INFO: -------------------------------------------------------------------
Dec 01, 2023 1:42:17 PM com.functional.steps.BaseClass takeScreenshotOnFailure
INFO: Test Passed for the scenario: Select Apple Identity
Dec 01, 2023 1:42:17 PM com.functional.steps.BaseClass takeScreenshotOnFailure
INFO: -------------------------------------------------------------------
Dec 01, 2023 1:42:17 PM com.functional.steps.BaseClass teardown
INFO: -------------------------------------------------------------------
Dec 01, 2023 1:42:17 PM com.functional.steps.BaseClass teardown
INFO: Test Execution completed for the scenario successfully: Select Apple Identity
Dec 01, 2023 1:42:17 PM com.functional.steps.BaseClass teardown
INFO: -------------------------------------------------------------------
]]></system-err>
  </testcase>
  <testcase name="runScenario[&quot;Select Amazon Identity&quot;, &quot;Select Identity providers on the ARCatar Landing Page&quot;](4)" classname="com.functional.steps.RunnerClass" time="16.052">
    <system-err><![CDATA[Dec 01, 2023 1:42:17 PM com.functional.utilities.DriverSettings readConfig
INFO: Reading Configuration file..........
Dec 01, 2023 1:42:17 PM com.functional.utilities.DriverSettings readConfig
INFO: Loading Configuration file..........D:\Aracter_Project\Mahender\ArcatarTestAutomation\WebAutomation\target\test-classes\com\functional\assets\config.properties
Dec 01, 2023 1:42:17 PM com.functional.utilities.DriverSettings readConfig
INFO: Properties file loaded..........
Dec 01, 2023 1:42:17 PM com.functional.utilities.DriverSettings initializeDriver
INFO: Running locally.... WebDriver instance initialized!!
Dec 01, 2023 1:42:19 PM org.openqa.selenium.devtools.CdpVersionFinder findNearestMatch
WARNING: Unable to find an exact match for CDP version 119, so returning the closest version found: 115
Dec 01, 2023 1:42:19 PM com.functional.steps.BaseClass setUp
INFO: -------------------------------------------------------------------------
Dec 01, 2023 1:42:19 PM com.functional.steps.BaseClass setUp
INFO: .......................Browser has started sucessfully....................
Dec 01, 2023 1:42:19 PM com.functional.steps.BaseClass setUp
INFO: .......Select Amazon Identity Test Execution has started ......
Dec 01, 2023 1:42:19 PM com.functional.steps.BaseClass setUp
INFO: -------------------------------------------------------------------------
Dec 01, 2023 1:42:19 PM com.functional.utilities.Helpers getTestURLs
INFO: Loading Test URLs file..........D:\Aracter_Project\Mahender\ArcatarTestAutomation\WebAutomation\target\test-classes\com\functional\assets\testUrl.properties
Dec 01, 2023 1:42:19 PM com.functional.utilities.Helpers getTestURLs
INFO: Test URLs file loaded..........
Dec 01, 2023 1:42:26 PM com.functional.steps.ArcatarLandingPageSteps user_is_on_arcatar_landing_page
INFO: Launching Arcatar Application ......
Dec 01, 2023 1:42:33 PM com.functional.steps.ArcatarLandingPageSteps user_selects_the_Amazon_Identity
INFO: User selected Amazon Identity ......
Dec 01, 2023 1:42:33 PM com.functional.steps.BaseClass takeScreenshotOnFailure
INFO: -------------------------------------------------------------------
Dec 01, 2023 1:42:33 PM com.functional.steps.BaseClass takeScreenshotOnFailure
INFO: Test Passed for the scenario: Select Amazon Identity
Dec 01, 2023 1:42:33 PM com.functional.steps.BaseClass takeScreenshotOnFailure
INFO: -------------------------------------------------------------------
Dec 01, 2023 1:42:33 PM com.functional.steps.BaseClass teardown
INFO: -------------------------------------------------------------------
Dec 01, 2023 1:42:33 PM com.functional.steps.BaseClass teardown
INFO: Test Execution completed for the scenario successfully: Select Amazon Identity
Dec 01, 2023 1:42:33 PM com.functional.steps.BaseClass teardown
INFO: -------------------------------------------------------------------
]]></system-err>
  </testcase>
  <testcase name="runScenario[&quot;Select Discord Identity&quot;, &quot;Select Identity providers on the ARCatar Landing Page&quot;](5)" classname="com.functional.steps.RunnerClass" time="16.498">
    <system-err><![CDATA[Dec 01, 2023 1:42:33 PM com.functional.utilities.DriverSettings readConfig
INFO: Reading Configuration file..........
Dec 01, 2023 1:42:33 PM com.functional.utilities.DriverSettings readConfig
INFO: Loading Configuration file..........D:\Aracter_Project\Mahender\ArcatarTestAutomation\WebAutomation\target\test-classes\com\functional\assets\config.properties
Dec 01, 2023 1:42:33 PM com.functional.utilities.DriverSettings readConfig
INFO: Properties file loaded..........
Dec 01, 2023 1:42:33 PM com.functional.utilities.DriverSettings initializeDriver
INFO: Running locally.... WebDriver instance initialized!!
Dec 01, 2023 1:42:34 PM org.openqa.selenium.devtools.CdpVersionFinder findNearestMatch
WARNING: Unable to find an exact match for CDP version 119, so returning the closest version found: 115
Dec 01, 2023 1:42:34 PM com.functional.steps.BaseClass setUp
INFO: -------------------------------------------------------------------------
Dec 01, 2023 1:42:34 PM com.functional.steps.BaseClass setUp
INFO: .......................Browser has started sucessfully....................
Dec 01, 2023 1:42:34 PM com.functional.steps.BaseClass setUp
INFO: .......Select Discord Identity Test Execution has started ......
Dec 01, 2023 1:42:34 PM com.functional.steps.BaseClass setUp
INFO: -------------------------------------------------------------------------
Dec 01, 2023 1:42:34 PM com.functional.utilities.Helpers getTestURLs
INFO: Loading Test URLs file..........D:\Aracter_Project\Mahender\ArcatarTestAutomation\WebAutomation\target\test-classes\com\functional\assets\testUrl.properties
Dec 01, 2023 1:42:34 PM com.functional.utilities.Helpers getTestURLs
INFO: Test URLs file loaded..........
Dec 01, 2023 1:42:41 PM com.functional.steps.ArcatarLandingPageSteps user_is_on_arcatar_landing_page
INFO: Launching Arcatar Application ......
Dec 01, 2023 1:42:50 PM com.functional.steps.ArcatarLandingPageSteps user_selects_the_Discord_Identity
INFO: User selected Discord Identity ......
Dec 01, 2023 1:42:50 PM com.functional.steps.BaseClass takeScreenshotOnFailure
INFO: -------------------------------------------------------------------
Dec 01, 2023 1:42:50 PM com.functional.steps.BaseClass takeScreenshotOnFailure
INFO: Test Passed for the scenario: Select Discord Identity
Dec 01, 2023 1:42:50 PM com.functional.steps.BaseClass takeScreenshotOnFailure
INFO: -------------------------------------------------------------------
Dec 01, 2023 1:42:50 PM com.functional.steps.BaseClass teardown
INFO: -------------------------------------------------------------------
Dec 01, 2023 1:42:50 PM com.functional.steps.BaseClass teardown
INFO: Test Execution completed for the scenario successfully: Select Discord Identity
Dec 01, 2023 1:42:50 PM com.functional.steps.BaseClass teardown
INFO: -------------------------------------------------------------------
]]></system-err>
  </testcase>
</testsuite>