com\functional\identifiers\ArcatarLandingPageLocators.class
com\functional\steps\RunnerClass.class
com\functional\utilities\DriverSettings.class
com\functional\pages\objects\ArcatarDashboardPage.class
com\functional\identifiers\ArcatarDashboardPageLocators.class
com\functional\steps\ArcatarLandingPageSteps.class
com\functional\steps\BaseClass.class
com\functional\utilities\Helpers.class
com\functional\steps\IdentityLoginPageSteps.class
com\functional\pages\objects\IdentityLoginPage.class
com\functional\pages\objects\ArcatarLandingPage.class
com\functional\utilities\DriverExtensions.class
com\functional\identifiers\IdentityLoginPageLocators.class
com\functional\steps\ArcatarDashboardPageSteps.class
