-------------------------------------------------------------------------------
Test set: Arcatar Interests API's
-------------------------------------------------------------------------------
Tests run: 3, Failures: 2, Errors: 0, Skipped: 0, Time elapsed: 6.464 s <<< FAILURE! - in Arcatar Interests API's
Arcatar Interests API's.Sending a POST request to create new interests  Time elapsed: 0.96 s  <<< FAILURE!
java.lang.AssertionError: expected:<409> but was:<201>
	at org.junit.Assert.fail(Assert.java:88)
	at org.junit.Assert.failNotEquals(Assert.java:834)
	at org.junit.Assert.assertEquals(Assert.java:645)
	at org.junit.Assert.assertEquals(Assert.java:631)
	at com.steps.StepDefs_InterestRequests.the_response_status_code_should_be(StepDefs_InterestRequests.java:46)
	at ✽.the response status code should be 409(file:///D:/Aracter_Project/Mahender/ArcatarTestAutomation/APIAutomation/src/test/resources/com/features/Interests.feature:15)

Arcatar Interests API's.Deleting a resource using DELETE request  Time elapsed: 0.853 s  <<< FAILURE!
java.lang.AssertionError: expected:<200> but was:<404>
	at org.junit.Assert.fail(Assert.java:88)
	at org.junit.Assert.failNotEquals(Assert.java:834)
	at org.junit.Assert.assertEquals(Assert.java:645)
	at org.junit.Assert.assertEquals(Assert.java:631)
	at com.steps.StepDefs_InterestRequests.the_response_status_code_should_be(StepDefs_InterestRequests.java:46)
	at ✽.the response status code should be 200(file:///D:/Aracter_Project/Mahender/ArcatarTestAutomation/APIAutomation/src/test/resources/com/features/Interests.feature:21)

